{
  "POST /auth/logout": {
    "success": true,
    "message": "Até breve!"
  },
  "POST /auth/token": {
    "success": true,
    "message": "Token válido!",
    "data": {
      "id": "1",
      "username": "admin",
      "password": "123",
      "token": "a1s2d3f4"
    }
  },
  "GET /auth/user": {
    "success": true,
    "message": "Login efetuado com sucesso! (2)",
    "data": {
      "id": "1",
      "username": "admin",
      "password": "123",
      "token": "a1s2d3f4"
    }
  },
  "GET /posts": {
    "success": true,
    "message": "Posts retornados com sucesso",
    "data": [{
      "id": "1",
      "title": "Vue.js: a revolução",
      "created_at": "2017-03-09 21:20:47"
    }, {
      "id": "2",
      "title": "React vs Vue.js: a batalha final",
      "created_at": "2017-03-09 22:17:30"
    }, {
      "id": "3",
      "title": "SEO com SPA, é possível?",
      "created_at": "2017-03-09 22:57:03"
    }, {
      "id": "4",
      "title": "Com a mão na massa do Ruby",
      "created_at": "2017-03-09 22:57:03"
    }, {
      "id": "5",
      "title": "Tests and tests!",
      "created_at": "2017-03-09 22:57:03"
    }, {
      "id": "6",
      "title": "API ágil com Node.js",
      "created_at": "2017-03-09 22:57:03"
    }, {
      "id": "7",
      "title": "Webpack para agilizar seu workflow",
      "created_at": "2017-03-09 22:57:03"
    }, {
      "id": "8",
      "title": "Gulp e Grunt: moribundos?",
      "created_at": "2017-03-09 22:57:03"
    }, {
      "id": "9",
      "title": "Bricando com getmdl, o framework css",
      "created_at": "2017-03-09 22:57:03"
    }, {
      "id": "10",
      "title": "SVG para deixar sua aplicação mais animada",
      "created_at": "2017-03-09 22:57:03"
    }],
    "paging": {
      "limit": 10,
      "page": 1,
      "pages": 5,
      "total": 51
    }
  },
  "GET /posts/:id": {
    "success": true,
    "message": "Post retornado com sucesso",
    "data": {
      "id": "1",
      "title": "Vue.js: a revolução",
      "body": "### Vue.js\n\n**Uma** nova onda chegou, e `agora` vai ser _difícil_ contê-la.",
      "created_at": "2017-03-09 21:20:47"
    }
  },
  "POST /posts": {
    "success": true,
    "message": "Post criado com sucesso",
    "data": {
      "id": "4",
      "title": "Uma nova era",
      "created_at": "2017-03-09 23:09:09"
    }
  },
  "POST /posts/:id/update": {
    "success": true,
    "message": "Post autalizado com sucesso",
    "data": {
      "id": "4",
      "title": "Uma nova era",
      "created_at": "2017-03-09 23:09:09"
    }
  },
  "DELETE /posts/:id": {
    "success": true,
    "message": "Post removido com sucesso"
  },
  "POST /posts/bulk-delete": {
    "success": true,
    "message": "Posts removidos com sucesso"
  }
}
